{
    "hash_status_code_1": {
        "message": "à jour",
        "description": ""
    },

    "hash_status_code_2": {
        "message": "mis à jour",
        "description": ""
    },

    "hash_status_code_3": {
        "message": "mise à jour disponible",
        "description": ""
    },

    "hash_status_code_4": {
        "message": "erreur",
        "description": ""
    },

    "hash_status_code_5": {
        "message": "Quelque chose a dysfonctionné",
        "description": ""
    },

    "log_redirect": {
        "message": "Cette URL a été redirigée",
        "description": ""
    },

    "log_domain_blocked": {
        "message": "Ce domaine est bloqué",
        "description": ""
    },

    "check_os_log": {
        "message": "[ClearURLs]: Une base de données pour les URL a été ajoutée",
        "description": ""
    },

    "log_html_page_title": {
        "message": "Journaux de ClearURLs",
        "description": ""
    },

    "log_html_table_head_1": {
        "message": "Avant traitement",
        "description": ""
    },

    "log_html_table_head_2": {
        "message": "Après traitement. ",
        "description": ""
    },

    "log_html_table_head_3": {
        "message": "Règle",
        "description": ""
    },

    "log_html_table_head_4": {
        "message": "Temps",
        "description": ""
    },

    "log_html_reset_button": {
        "message": "Remise à zéro",
        "description": ""
    },

    "log_html_reset_button_title": {
        "message": "Réinitialiser les journaux globaux",
        "description": ""
    },

    "popup_html_configs_head": {
        "message": "Paramétrages",
        "description": ""
    },

    "popup_html_configs_switch_filter": {
        "message": "Filtre",
        "description": ""
    },

    "popup_html_configs_switch_filter_title": {
        "message": "Le commutateur de l'extension active ou désactive la fonction de nettoyage de ClearURLs",
        "description": ""
    },

    "popup_html_configs_switch_log": {
        "message": "Journalisation",
        "description": ""
    },

    "popup_html_configs_switch_log_title": {
        "message": "Les journaux sont enregistrés localement. Si vous n’avez pas besoin de les consulter, nous déconseillons de les activer",
        "description": ""
    },

    "popup_html_configs_switch_badges": {
        "message": "Compteur",
        "description": ""
    },

    "popup_html_configs_switch_badges_title": {
        "message": "Afficher le nombre d'URL nettoyées",
        "description": ""
    },

    "popup_html_statistics_head": {
        "message": "Statistiques",
        "description": ""
    },

    "popup_html_statistics_elements": {
        "message": "Éléments",
        "description": ""
    },

    "popup_html_statistics_blocked": {
        "message": "Nb. de bloqués",
        "description": ""
    },

    "popup_html_statistics_percentage": {
        "message": "Pourcentage",
        "description": ""
    },

    "popup_html_statistics_reset_button": {
        "message": "Remettre à zéro",
        "description": ""
    },

    "popup_html_statistics_reset_button_title": {
        "message": "Remettre à zéro les statistiques globales",
        "description": ""
    },

    "popup_html_rules_status_head": {
        "message": "Règles de la base de données",
        "description": ""
    },

    "popup_html_log_head": {
        "message": "Journaux",
        "description": ""
    },

    "popup_html_log_head_title": {
        "message": "Ouvrir les journaux",
        "description": ""
    },

    "popup_html_report_button": {
        "message": "Signaler cette URL",
        "description": ""
    },

    "popup_html_report_button_title": {
        "message": "Signaler un dysfonctionnement sur cette URL",
        "description": ""
    },

    "core_save_on_disk": {
        "message": "[ClearURLs]: Sauvegarder sur le disque.",
        "description": ""
    },

    "core_error": {
        "message": "[ClearURLs]: L’extension n’a pu être démarrée.",
        "description": ""
    },

    "configs_switch_statistics": {
        "message": "Statistiques",
        "description": ""
    },

    "configs_switch_statistics_title": {
        "message": "Activer ou désactiver les statistiques",
        "description": ""
    },

    "settings_html_page_title": {
        "message": "Paramétrages de ClearURLs",
        "description": ""
    },

    "badged_color_label": {
        "message": "Couleur du compteur",
        "description": ""
    },

    "setting_html_reset_button": {
        "message": "Remettre à l’état initial",
        "description": ""
    },

    "setting_html_reset_button_title": {
        "message": "Réinitialisation de tous les paramètres",
        "description": ""
    },

    "setting_rule_url_label": {
        "message": "L'URL du fichier data.json (règles)",
        "description": ""
    },

    "settings_html_save_button": {
        "message": "Sauvegarder et redémarrer l’extension",
        "description": ""
    },

    "settings_html_save_button_title": {
        "message": "Sauvegarde les paramétrages",
        "description": ""
    },

    "setting_hash_url_label": {
        "message": "L'URL du fichier rules.hash (signature de contrôle)",
        "description": ""
    },

    "setting_types_label": {
        "message": "<a href='https://developer.mozilla.org/en-US/docs/Mozilla/Add-ons/WebExtensions/API/webRequest/ResourceType' target='_blank'>Types de requête (webRequest)</a> (niveau expert)",
        "description": ""
    },

    "setting_report_server_label": {
        "message": "Serveur pour signaler des URL",
        "description": ""
    },

    "success_report_url": {
        "message": "Nous avons reçu votre signalement. Nous allons vérifier cette URL.",
        "description": ""
    },

    "error_report_url": {
        "message": "Il semble que cette URL a déjà été signalée.",
        "description": ""
    },

    "donate_button": {
        "message": "Subventionner le créateur de ClearURLs.",
        "description": ""
    },
    "clipboard_copy_link": {
        "message": "Copier l’URL sans le traqueur",
        "description": ""
    },
    "context_menu_enabled": {
        "message": "Activer ClearUrls dans le menu contextuel",
        "description": ""
    },
    "history_listener_enabled": {
        "message": "Empêcher le suivi par l’API d'historique (<a href='https://developer.mozilla.org/en-US/docs/Web/API/History_API#The_replaceState()_method' target='_blank'>La méthode replaceState()</a>)",
        "description": ""
    },
    "cleaning_tool_page_title": {
        "message": "Outil de nettoyage pour ClearURLs",
        "description": ""
    },
    "cleaning_tool_description": {
        "message": "Ici, vous pouvez déposer des URL et ClearURLs les nettoiera par un clic sur le bouton vert. Vous pouvez mettre plusieurs URL mais chaque URL devra être mise sur une ligne séparée.",
        "description": ""
    },
    "cleaning_tool_btn": {
        "message": "Nettoyer les URL",
        "description": ""
    },
    "cleaning_tool_dirty_urls_label": {
        "message": "Coller ici les URL à nettoyer :",
        "description": ""
    },
    "cleaning_tool_clean_urls_label": {
        "message": "Vous trouverez ici les URL nettoyées :",
        "description": ""
    }
}
