{
    "hash_status_code_1": {
        "message": "Aktuell",
        "description": ""
    },

    "hash_status_code_2": {
        "message": "Aktuallisiert",
        "description": ""
    },

    "hash_status_code_3": {
        "message": "Aktuallisierung verfügbar",
        "description": ""
    },

    "hash_status_code_4": {
        "message": "Fehler",
        "description": ""
    },

    "hash_status_code_5": {
        "message": "Da ist etwas schiefgelaufen!",
        "description": ""
    },

    "log_redirect": {
        "message": "Diese Url wurde weiter geleitet",
        "description": ""
    },

    "log_domain_blocked": {
        "message": "Diese Domain wurde blockiert",
        "description": ""
    },

    "check_os_log": {
        "message": "[ClearURLs]: Protokoll-Listener wurde hinzugefügt.",
        "description": ""
    },

    "log_html_page_title": {
        "message": "Protokoll von ClearURLs",
        "description": ""
    },

    "log_html_table_head_1": {
        "message": "Vor der Verarbeitung",
        "description": ""
    },

    "log_html_table_head_2": {
        "message": "Nach der Verarbeitung",
        "description": ""
    },

    "log_html_table_head_3": {
        "message": "Regel",
        "description": ""
    },

    "log_html_table_head_4": {
        "message": "Zeit",
        "description": ""
    },

    "log_html_reset_button": {
        "message": "Zurücksetzen",
        "description": ""
    },

    "log_html_reset_button_title": {
        "message": "Setzt das globale Protokoll zurück",
        "description": ""
    },

    "popup_html_configs_head": {
        "message": "Einstellungen",
        "description": ""
    },

    "popup_html_configs_switch_filter": {
        "message": "Filter",
        "description": ""
    },

    "popup_html_configs_switch_filter_title": {
        "message": "Der Filter-Schalter aktiviert die Reinigungsfunktion von ClearURLs, wenn sie die Funktion ausschalten, dann deaktivieren sie das gesamte Addon",
        "description": ""
    },

    "popup_html_configs_switch_log": {
        "message": "Protokoll",
        "description": ""
    },

    "popup_html_configs_switch_log_title": {
        "message": "Das Protokoll wird nur lokal gespeichert. Wir empfehlen diese Funktion deaktiviert zulassen, wenn Sie sie nicht benötigen",
        "description": ""
    },

    "popup_html_configs_switch_badges": {
        "message": "Zähler",
        "description": ""
    },

    "popup_html_configs_switch_badges_title": {
        "message": "Zeigt die Anzahl der gereinigten URLs an",
        "description": ""
    },

    "popup_html_statistics_head": {
        "message": "Statistik",
        "description": ""
    },

    "popup_html_statistics_elements": {
        "message": "Elemente",
        "description": ""
    },

    "popup_html_statistics_blocked": {
        "message": "Blockiert",
        "description": ""
    },

    "popup_html_statistics_percentage": {
        "message": "Anteil",
        "description": ""
    },

    "popup_html_statistics_reset_button": {
        "message": "Zurücksetzen",
        "description": ""
    },

    "popup_html_statistics_reset_button_title": {
        "message": "Setzt die globale Statistik zurück",
        "description": ""
    },

    "popup_html_rules_status_head": {
        "message": "Regel Status",
        "description": ""
    },

    "popup_html_log_head": {
        "message": "Protokoll",
        "description": ""
    },

    "popup_html_log_head_title": {
        "message": "Öffnet das Protokoll",
        "description": ""
    },

    "popup_html_report_button": {
        "message": "Aktuelle URL melden",
        "description": ""
    },

    "popup_html_report_button_title": {
        "message": "Meldet die aktuelle URL aus diesem Tab.",
        "description": ""
    },

    "core_save_on_disk": {
        "message": "[ClearURLs]: Auf Festplatte gespeichert.",
        "description": ""
    },

    "core_error": {
        "message": "[ClearURLs]: Das Addon konnte nicht gestartet werden.",
        "description": ""
    },

    "configs_switch_statistics": {
        "message": "Statistiken",
        "description": ""
    },

    "configs_switch_statistics_title": {
        "message": "Aktiviert oder deaktiviert die Statistikfunktion",
        "description": ""
    },

    "settings_html_page_title": {
        "message": "Einstellungen von ClearURLs",
        "description": ""
    },

    "badged_color_label": {
        "message": "Zählerfarbe",
        "description": ""
    },

    "setting_html_reset_button": {
        "message": "Zurücksetzen",
        "description": ""
    },

    "setting_html_reset_button_title": {
        "message": "Setzt alle Einstellungen zurück",
        "description": ""
    },

    "setting_rule_url_label": {
        "message": "Die Url zu der data.json Datei (Regeln)",
        "description": ""
    },

    "settings_html_save_button": {
        "message": "Speichern & Addon neustarten",
        "description": ""
    },

    "settings_html_save_button_title": {
        "message": "Speichert die Einstellungen",
        "description": ""
    },

    "setting_hash_url_label": {
        "message": "Die Url zu der rules.hash Datei (Hash)",
        "description": ""
    },

    "setting_types_label": {
        "message": "<a href='https://developer.mozilla.org/en-US/docs/Mozilla/Add-ons/WebExtensions/API/webRequest/ResourceType' target='_blank'>Request types</a> (Expertenniveau)",
        "description": ""
    },

    "setting_report_server_label": {
        "message": "Meldungsserver für URLs",
        "description": ""
    },

    "success_report_url": {
        "message": "Die URL wurde erfolgreich gemeldet. Wir werden sie in Kürze prüfen.",
        "description": ""
    },

    "error_report_url": {
        "message": "Es schaut so aus, als ob diese URL schon gemeldet wurde.",
        "description": ""
    },

    "donate_button": {
        "message": "Eine Spende (Schenkung) für den ClearURLs Urheber.",
        "description": ""
    },
    "clipboard_copy_link": {
        "message": "Gesäuberte Link-Adresse kopieren",
        "description": ""
    },
    "context_menu_enabled": {
        "message": "Kontextmenü-Eintrag anzeigen",
        "description": ""
    },
    "history_listener_enabled": {
        "message": "Verhindere Tracking über die History-API (Siehe auch: <a href='https://developer.mozilla.org/en-US/docs/Web/API/History_API#The_replaceState()_method' target='_blank'>The replaceState() method</a>)",
        "description": ""
    },
    "cleaning_tool_page_title": {
        "message": "Säuberungswerkzeug von ClearURLs",
        "description": ""
    },
    "cleaning_tool_description": {
        "message": "Mit diesem Werkzeug können Sie URLs in die Textbox einfügen. Nach einem klick auf den grünen Button reinigt ClearURLs die Links. Sie können mehrer URLs auf einmal einfügen, jede URL muss aber in einer eigenen Zeile stehen.",
        "description": ""
    },
    "cleaning_tool_btn": {
        "message": "URLs säubern",
        "description": ""
    },
    "cleaning_tool_dirty_urls_label": {
        "message": "Hier können Sie die ungesäuberten URLs einfügen:",
        "description": ""
    },
    "cleaning_tool_clean_urls_label": {
        "message": "Hier finden Sie die gesäuberten URLs:",
        "description": ""
    }
}
